\relax 
\providecommand\hyper@newdestlabel[2]{}
\providecommand\HyperFirstAtBeginDocument{\AtBeginDocument}
\HyperFirstAtBeginDocument{\ifx\hyper@anchor\@undefined
\global\let\oldcontentsline\contentsline
\gdef\contentsline#1#2#3#4{\oldcontentsline{#1}{#2}{#3}}
\global\let\oldnewlabel\newlabel
\gdef\newlabel#1#2{\newlabelxx{#1}#2}
\gdef\newlabelxx#1#2#3#4#5#6{\oldnewlabel{#1}{{#2}{#3}}}
\AtEndDocument{\ifx\hyper@anchor\@undefined
\let\contentsline\oldcontentsline
\let\newlabel\oldnewlabel
\fi}
\fi}
\global\let\hyper@last\relax 
\gdef\HyperFirstAtBeginDocument#1{#1}
\providecommand\HyField@AuxAddToFields[1]{}
\providecommand\HyField@AuxAddToCoFields[2]{}
\@writefile{toc}{\boolfalse {citerequest}\boolfalse {citetracker}\boolfalse {pagetracker}\boolfalse {backtracker}\relax }
\@writefile{lof}{\boolfalse {citerequest}\boolfalse {citetracker}\boolfalse {pagetracker}\boolfalse {backtracker}\relax }
\@writefile{lot}{\boolfalse {citerequest}\boolfalse {citetracker}\boolfalse {pagetracker}\boolfalse {backtracker}\relax }
\abx@aux@refcontext{cms/global//global/global}
\@writefile{toc}{\defcounter {refsection}{0}\relax }\@writefile{toc}{\contentsline {chapter}{Introduction}{7}{chapter*.1}\protected@file@percent }
\@writefile{lof}{\defcounter {refsection}{0}\relax }\@writefile{lof}{\addvspace {10\p@ }}
\@writefile{lot}{\defcounter {refsection}{0}\relax }\@writefile{lot}{\addvspace {10\p@ }}
\abx@aux@cite{pavlov1951v3b1}
\abx@aux@segm{0}{0}{pavlov1951v3b1}
\abx@aux@fnpage{1}{10}
\newlabel{cbx@1}{{1}{10}{Introduction}{chapter*.1}{}}
\abx@aux@cite{pavlov1951v1}
\abx@aux@segm{0}{0}{pavlov1951v1}
\abx@aux@cite{pavlov1951v3b1}
\abx@aux@segm{0}{0}{pavlov1951v3b1}
\abx@aux@cite{vygotsky1982v1}
\abx@aux@segm{0}{0}{vygotsky1982v1}
\abx@aux@cite{vygotsky1982v1}
\abx@aux@segm{0}{0}{vygotsky1982v1}
\abx@aux@fnpage{2}{12}
\newlabel{cbx@2}{{2}{12}{Introduction}{chapter*.1}{}}
\abx@aux@fnpage{3}{12}
\abx@aux@fnpage{4}{12}
\newlabel{cbx@4}{{4}{12}{Introduction}{chapter*.1}{}}
\abx@aux@fnpage{5}{13}
\abx@aux@cite{toulmin1978}
\abx@aux@segm{0}{0}{toulmin1978}
\abx@aux@fnpage{6}{16}
\newlabel{cbx@6}{{7}{16}{Introduction}{chapter*.1}{}}
\abx@aux@cite{defect1984}
\abx@aux@segm{0}{0}{defect1984}
\abx@aux@cite{defect1984}
\abx@aux@segm{0}{0}{defect1984}
\abx@aux@cite{defect1984}
\abx@aux@segm{0}{0}{defect1984}
\abx@aux@fnpage{7}{20}
\newlabel{cbx@7}{{8}{20}{Introduction}{chapter*.1}{}}
\abx@aux@fnpage{8}{20}
\abx@aux@fnpage{9}{20}
\abx@aux@cite{vygotsky1982v1}
\abx@aux@segm{0}{0}{vygotsky1982v1}
\abx@aux@fnpage{10}{22}
\@writefile{toc}{\defcounter {refsection}{0}\relax }\@writefile{toc}{\contentsline {chapter}{Family and School}{25}{chapter*.2}\protected@file@percent }
\@writefile{lof}{\defcounter {refsection}{0}\relax }\@writefile{lof}{\addvspace {10\p@ }}
\@writefile{lot}{\defcounter {refsection}{0}\relax }\@writefile{lot}{\addvspace {10\p@ }}
\@writefile{toc}{\defcounter {refsection}{0}\relax }\@writefile{toc}{\contentsline {chapter}{University Years. The Riddle of Hamlet}{29}{chapter*.3}\protected@file@percent }
\@writefile{lof}{\defcounter {refsection}{0}\relax }\@writefile{lof}{\addvspace {10\p@ }}
\@writefile{lot}{\defcounter {refsection}{0}\relax }\@writefile{lot}{\addvspace {10\p@ }}
\abx@aux@cite{vygotsky1965}
\abx@aux@segm{0}{0}{vygotsky1965}
\abx@aux@cite{vygotsky1965}
\abx@aux@segm{0}{0}{vygotsky1965}
\abx@aux@fnpage{11}{32}
\newlabel{cbx@11}{{14}{32}{University Years. The Riddle of Hamlet}{chapter*.3}{}}
\abx@aux@fnpage{12}{32}
\abx@aux@cite{shake1965}
\abx@aux@segm{0}{0}{shake1965}
\abx@aux@cite{shake1965}
\abx@aux@segm{0}{0}{shake1965}
\abx@aux@cite{efros1922}
\abx@aux@segm{0}{0}{efros1922}
\abx@aux@cite{vygotsky1965}
\abx@aux@segm{0}{0}{vygotsky1965}
\abx@aux@fnpage{13}{33}
\newlabel{cbx@13}{{16}{33}{University Years. The Riddle of Hamlet}{chapter*.3}{}}
\abx@aux@fnpage{14}{33}
\abx@aux@fnpage{15}{33}
\newlabel{cbx@15}{{18}{33}{University Years. The Riddle of Hamlet}{chapter*.3}{}}
\abx@aux@fnpage{16}{34}
\abx@aux@cite{shake1965}
\abx@aux@segm{0}{0}{shake1965}
\abx@aux@cite{vygotsky1965}
\abx@aux@segm{0}{0}{vygotsky1965}
\abx@aux@cite{tolstoy1950}
\abx@aux@segm{0}{0}{tolstoy1950}
\abx@aux@fnpage{17}{36}
\abx@aux@fnpage{18}{36}
\abx@aux@cite{vygotsky1965}
\abx@aux@segm{0}{0}{vygotsky1965}
\abx@aux@cite{vygotsky1965}
\abx@aux@segm{0}{0}{vygotsky1965}
\abx@aux@cite{vygotsky1965}
\abx@aux@segm{0}{0}{vygotsky1965}
\abx@aux@cite{vygotsky1965}
\abx@aux@segm{0}{0}{vygotsky1965}
\abx@aux@cite{vygotsky1965}
\abx@aux@segm{0}{0}{vygotsky1965}
\abx@aux@cite{vygotsky1965}
\abx@aux@segm{0}{0}{vygotsky1965}
\abx@aux@fnpage{19}{37}
\newlabel{cbx@19}{{24}{37}{University Years. The Riddle of Hamlet}{chapter*.3}{}}
\abx@aux@fnpage{20}{37}
\abx@aux@fnpage{21}{37}
\abx@aux@fnpage{22}{37}
\abx@aux@fnpage{23}{37}
\abx@aux@fnpage{24}{37}
\abx@aux@cite{vygotsky1965}
\abx@aux@segm{0}{0}{vygotsky1965}
\abx@aux@cite{vygotsky1965}
\abx@aux@segm{0}{0}{vygotsky1965}
\abx@aux@cite{vygotsky1965}
\abx@aux@segm{0}{0}{vygotsky1965}
\abx@aux@cite{vygotsky1965}
\abx@aux@segm{0}{0}{vygotsky1965}
\abx@aux@cite{vygotsky1965}
\abx@aux@segm{0}{0}{vygotsky1965}
\abx@aux@fnpage{25}{38}
\abx@aux@fnpage{26}{38}
\abx@aux@fnpage{27}{38}
\abx@aux@fnpage{28}{38}
\abx@aux@fnpage{29}{38}
\abx@aux@fnpage{30}{39}
\abx@aux@cite{ehrenburg1966}
\abx@aux@segm{0}{0}{ehrenburg1966}
\@writefile{toc}{\defcounter {refsection}{0}\relax }\@writefile{toc}{\contentsline {chapter}{Teacher in Gomel}{41}{chapter*.4}\protected@file@percent }
\@writefile{lof}{\defcounter {refsection}{0}\relax }\@writefile{lof}{\addvspace {10\p@ }}
\@writefile{lot}{\defcounter {refsection}{0}\relax }\@writefile{lot}{\addvspace {10\p@ }}
\abx@aux@fnpage{31}{42}
\newlabel{cbx@31}{{38}{42}{Teacher in Gomel}{chapter*.4}{}}
\abx@aux@cite{vygotsky1926}
\abx@aux@segm{0}{0}{vygotsky1926}
\abx@aux@cite{vygotsky1926}
\abx@aux@segm{0}{0}{vygotsky1926}
\abx@aux@fnpage{32}{44}
\newlabel{cbx@32}{{39}{44}{Teacher in Gomel}{chapter*.4}{}}
\abx@aux@fnpage{33}{44}
\abx@aux@cite{pavlov1951v3b2}
\abx@aux@segm{0}{0}{pavlov1951v3b2}
\abx@aux@cite{vygotsky1982v1}
\abx@aux@segm{0}{0}{vygotsky1982v1}
\abx@aux@cite{vygotsky1928a}
\abx@aux@segm{0}{0}{vygotsky1928a}
\abx@aux@page{34}{46}
\abx@aux@page{35}{46}
\abx@aux@page{36}{46}
\abx@aux@cite{vygotsky1926}
\abx@aux@segm{0}{0}{vygotsky1926}
\abx@aux@fnpage{37}{47}
\abx@aux@cite{vygotsky1926}
\abx@aux@segm{0}{0}{vygotsky1926}
\abx@aux@cite{vygotsky1926}
\abx@aux@segm{0}{0}{vygotsky1926}
\abx@aux@cite{vygotsky1926}
\abx@aux@segm{0}{0}{vygotsky1926}
\@writefile{toc}{\defcounter {refsection}{0}\relax }\@writefile{toc}{\contentsline {chapter}{From Reflexology To Psychology}{49}{chapter*.5}\protected@file@percent }
\@writefile{lof}{\defcounter {refsection}{0}\relax }\@writefile{lof}{\addvspace {10\p@ }}
\@writefile{lot}{\defcounter {refsection}{0}\relax }\@writefile{lot}{\addvspace {10\p@ }}
\abx@aux@fnpage{38}{49}
\abx@aux@fnpage{39}{49}
\abx@aux@fnpage{40}{49}
\abx@aux@cite{vygotsky1926}
\abx@aux@segm{0}{0}{vygotsky1926}
\abx@aux@cite{vygotsky1926}
\abx@aux@segm{0}{0}{vygotsky1926}
\abx@aux@fnpage{41}{52}
\abx@aux@fnpage{42}{52}
\abx@aux@cite{vygotsky1926}
\abx@aux@segm{0}{0}{vygotsky1926}
\abx@aux@fnpage{43}{53}
\abx@aux@cite{vygotsky1926}
\abx@aux@segm{0}{0}{vygotsky1926}
\abx@aux@cite{vygotsky1926}
\abx@aux@segm{0}{0}{vygotsky1926}
\abx@aux@fnpage{44}{54}
\abx@aux@fnpage{45}{54}
\abx@aux@cite{vygotsky1926}
\abx@aux@segm{0}{0}{vygotsky1926}
\abx@aux@cite{vygotsky1926}
\abx@aux@segm{0}{0}{vygotsky1926}
\abx@aux@fnpage{46}{55}
\abx@aux@fnpage{47}{55}
\abx@aux@cite{vygotsky1926}
\abx@aux@segm{0}{0}{vygotsky1926}
\abx@aux@cite{vygotsky1926}
\abx@aux@segm{0}{0}{vygotsky1926}
\abx@aux@cite{vygotsky1926}
\abx@aux@segm{0}{0}{vygotsky1926}
\abx@aux@cite{vygotsky1926}
\abx@aux@segm{0}{0}{vygotsky1926}
\abx@aux@fnpage{48}{60}
\abx@aux@fnpage{49}{60}
\abx@aux@fnpage{50}{60}
\abx@aux@fnpage{51}{61}
\abx@aux@cite{vygotsky1926}
\abx@aux@segm{0}{0}{vygotsky1926}
\abx@aux@cite{vygotsky1926}
\abx@aux@segm{0}{0}{vygotsky1926}
\abx@aux@fnpage{52}{62}
\abx@aux@fnpage{53}{62}
\abx@aux@cite{vygotsky1926}
\abx@aux@segm{0}{0}{vygotsky1926}
\abx@aux@cite{vygotsky1926}
\abx@aux@segm{0}{0}{vygotsky1926}
\abx@aux@fnpage{54}{63}
\abx@aux@fnpage{55}{63}
\abx@aux@cite{vygotsky1926}
\abx@aux@segm{0}{0}{vygotsky1926}
\abx@aux@cite{vygotsky1926}
\abx@aux@segm{0}{0}{vygotsky1926}
\abx@aux@fnpage{56}{64}
\abx@aux@fnpage{57}{64}
\abx@aux@cite{luria1982}
\abx@aux@segm{0}{0}{luria1982}
\abx@aux@cite{luria1982}
\abx@aux@segm{0}{0}{luria1982}
\@writefile{toc}{\defcounter {refsection}{0}\relax }\@writefile{toc}{\contentsline {chapter}{The Abnormal Child In The World Of Culture}{67}{chapter*.6}\protected@file@percent }
\@writefile{lof}{\defcounter {refsection}{0}\relax }\@writefile{lof}{\addvspace {10\p@ }}
\@writefile{lot}{\defcounter {refsection}{0}\relax }\@writefile{lot}{\addvspace {10\p@ }}
\abx@aux@fnpage{58}{67}
\newlabel{cbx@58}{{67}{67}{The Abnormal Child In The World Of Culture}{chapter*.6}{}}
\abx@aux@fnpage{59}{68}
\abx@aux@cite{vygotsky1982v5}
\abx@aux@segm{0}{0}{vygotsky1982v5}
\abx@aux@cite{vygotsky1982v5}
\abx@aux@segm{0}{0}{vygotsky1982v5}
\abx@aux@cite{voprosy1924}
\abx@aux@segm{0}{0}{voprosy1924}
\abx@aux@fnpage{60}{71}
\newlabel{cbx@60}{{72}{71}{The Abnormal Child In The World Of Culture}{chapter*.6}{}}
\abx@aux@fnpage{61}{71}
\abx@aux@fnpage{62}{71}
\newlabel{cbx@62}{{74}{71}{The Abnormal Child In The World Of Culture}{chapter*.6}{}}
\abx@aux@cite{voprosy1924}
\abx@aux@segm{0}{0}{voprosy1924}
\abx@aux@cite{vygotsky1982v5}
\abx@aux@segm{0}{0}{vygotsky1982v5}
\abx@aux@cite{vygotsky1982v5}
\abx@aux@segm{0}{0}{vygotsky1982v5}
\abx@aux@fnpage{63}{74}
\abx@aux@fnpage{64}{74}
\abx@aux@cite{vygotsky1982v5}
\abx@aux@segm{0}{0}{vygotsky1982v5}
\abx@aux@cite{vygotsky1982v5}
\abx@aux@segm{0}{0}{vygotsky1982v5}
\abx@aux@cite{vygotsky1982v5}
\abx@aux@segm{0}{0}{vygotsky1982v5}
\abx@aux@cite{vygotsky1982v5}
\abx@aux@segm{0}{0}{vygotsky1982v5}
\abx@aux@cite{vygotsky1982v5}
\abx@aux@segm{0}{0}{vygotsky1982v5}
\abx@aux@fnpage{65}{75}
\abx@aux@fnpage{66}{75}
\abx@aux@fnpage{67}{75}
\abx@aux@fnpage{68}{75}
\abx@aux@fnpage{69}{75}
\abx@aux@fnpage{70}{75}
\abx@aux@cite{vygotsky1982v5}
\abx@aux@segm{0}{0}{vygotsky1982v5}
\abx@aux@cite{vygotsky1982v5}
\abx@aux@segm{0}{0}{vygotsky1982v5}
\abx@aux@cite{vygotsky1982v5}
\abx@aux@segm{0}{0}{vygotsky1982v5}
\abx@aux@cite{vygotsky1982v5}
\abx@aux@segm{0}{0}{vygotsky1982v5}
\abx@aux@cite{vygotsky1982v5}
\abx@aux@segm{0}{0}{vygotsky1982v5}
\abx@aux@fnpage{71}{76}
\abx@aux@fnpage{72}{76}
\abx@aux@fnpage{73}{76}
\abx@aux@fnpage{74}{76}
\abx@aux@fnpage{75}{76}
\abx@aux@cite{vygotsky1982v5}
\abx@aux@segm{0}{0}{vygotsky1982v5}
\abx@aux@cite{vygotsky1982v5}
\abx@aux@segm{0}{0}{vygotsky1982v5}
\abx@aux@cite{vygotsky1982v5}
\abx@aux@segm{0}{0}{vygotsky1982v5}
\abx@aux@fnpage{76}{78}
\abx@aux@fnpage{77}{78}
\abx@aux@fnpage{78}{79}
\abx@aux@cite{vygotsky1982v5}
\abx@aux@segm{0}{0}{vygotsky1982v5}
\abx@aux@cite{vygotsky1982v5}
\abx@aux@segm{0}{0}{vygotsky1982v5}
\abx@aux@fnpage{79}{81}
\abx@aux@fnpage{80}{81}
\abx@aux@cite{vygotsky1982v5}
\abx@aux@segm{0}{0}{vygotsky1982v5}
\abx@aux@cite{vygotsky1982v5}
\abx@aux@segm{0}{0}{vygotsky1982v5}
\abx@aux@cite{vygotsky1982v5}
\abx@aux@segm{0}{0}{vygotsky1982v5}
\abx@aux@cite{vygotsky1982v5}
\abx@aux@segm{0}{0}{vygotsky1982v5}
\abx@aux@fnpage{81}{83}
\abx@aux@fnpage{82}{83}
\abx@aux@fnpage{83}{83}
\abx@aux@cite{vygotsky1982v5}
\abx@aux@segm{0}{0}{vygotsky1982v5}
\abx@aux@cite{vygotsky1982v5}
\abx@aux@segm{0}{0}{vygotsky1982v5}
\abx@aux@cite{vygotsky1982v5}
\abx@aux@segm{0}{0}{vygotsky1982v5}
\abx@aux@fnpage{84}{84}
\abx@aux@fnpage{85}{84}
\abx@aux@fnpage{86}{84}
\abx@aux@fnpage{87}{85}
\abx@aux@cite{vygotsky1982v5}
\abx@aux@segm{0}{0}{vygotsky1982v5}
\abx@aux@cite{vygotsky1982v5}
\abx@aux@segm{0}{0}{vygotsky1982v5}
\abx@aux@fnpage{88}{87}
\abx@aux@fnpage{89}{87}
\abx@aux@cite{vygotsky1982v5}
\abx@aux@segm{0}{0}{vygotsky1982v5}
\abx@aux@fnpage{90}{88}
\@writefile{toc}{\defcounter {refsection}{0}\relax }\@writefile{toc}{\contentsline {chapter}{Art: A Social Technique For The Emotions}{91}{chapter*.7}\protected@file@percent }
\@writefile{lof}{\defcounter {refsection}{0}\relax }\@writefile{lof}{\addvspace {10\p@ }}
\@writefile{lot}{\defcounter {refsection}{0}\relax }\@writefile{lot}{\addvspace {10\p@ }}
\newlabel{ch-art}{{}{91}{Art: A Social Technique For The Emotions}{chapter*.7}{}}
\abx@aux@cite{luria1982}
\abx@aux@segm{0}{0}{luria1982}
\abx@aux@fnpage{91}{93}
\abx@aux@cite{vygotsky1965}
\abx@aux@segm{0}{0}{vygotsky1965}
\abx@aux@fnpage{92}{96}
\abx@aux@cite{vygotsky1965}
\abx@aux@segm{0}{0}{vygotsky1965}
\abx@aux@fnpage{93}{97}
\abx@aux@cite{vygotsky1965}
\abx@aux@segm{0}{0}{vygotsky1965}
\abx@aux@fnpage{94}{98}
\abx@aux@cite{spinoza1925}
\abx@aux@segm{0}{0}{spinoza1925}
\abx@aux@cite{vygotsky1965}
\abx@aux@segm{0}{0}{vygotsky1965}
\abx@aux@cite{vygotsky1965}
\abx@aux@segm{0}{0}{vygotsky1965}
\abx@aux@cite{vygotsky1965}
\abx@aux@segm{0}{0}{vygotsky1965}
\abx@aux@cite{vygotsky1965}
\abx@aux@segm{0}{0}{vygotsky1965}
\abx@aux@fnpage{95}{100}
\newlabel{cbx@95}{{110}{100}{Art: A Social Technique For The Emotions}{chapter*.7}{}}
\abx@aux@fnpage{96}{100}
\abx@aux@fnpage{97}{100}
\abx@aux@fnpage{98}{100}
\abx@aux@fnpage{99}{100}
\abx@aux@cite{vygotsky1965}
\abx@aux@segm{0}{0}{vygotsky1965}
\abx@aux@cite{vygotsky1965}
\abx@aux@segm{0}{0}{vygotsky1965}
\abx@aux@cite{plekhanov1922}
\abx@aux@segm{0}{0}{plekhanov1922}
\abx@aux@cite{vygotsky1965}
\abx@aux@segm{0}{0}{vygotsky1965}
\abx@aux@fnpage{100}{101}
\abx@aux@fnpage{101}{101}
\abx@aux@fnpage{102}{101}
\newlabel{cbx@102}{{118}{101}{Art: A Social Technique For The Emotions}{chapter*.7}{}}
\abx@aux@fnpage{103}{101}
\abx@aux@cite{vygotsky1965}
\abx@aux@segm{0}{0}{vygotsky1965}
\abx@aux@cite{vygotsky1965}
\abx@aux@segm{0}{0}{vygotsky1965}
\abx@aux@fnpage{104}{102}
\abx@aux@fnpage{105}{102}
\abx@aux@cite{vygotsky1965}
\abx@aux@segm{0}{0}{vygotsky1965}
\abx@aux@cite{vygotsky1965}
\abx@aux@segm{0}{0}{vygotsky1965}
\abx@aux@fnpage{106}{104}
\abx@aux@fnpage{107}{104}
\abx@aux@cite{vygotsky1926}
\abx@aux@segm{0}{0}{vygotsky1926}
\abx@aux@cite{vygotsky1926}
\abx@aux@segm{0}{0}{vygotsky1926}
\abx@aux@cite{vygotsky1926}
\abx@aux@segm{0}{0}{vygotsky1926}
\abx@aux@cite{vygotsky1926}
\abx@aux@segm{0}{0}{vygotsky1926}
\abx@aux@cite{vygotsky1926}
\abx@aux@segm{0}{0}{vygotsky1926}
\abx@aux@fnpage{108}{105}
\abx@aux@fnpage{109}{105}
\abx@aux@fnpage{110}{105}
\abx@aux@fnpage{111}{105}
\abx@aux@cite{vygotsky1926}
\abx@aux@segm{0}{0}{vygotsky1926}
\abx@aux@cite{vygotsky1926}
\abx@aux@segm{0}{0}{vygotsky1926}
\abx@aux@fnpage{112}{106}
\abx@aux@fnpage{113}{106}
\abx@aux@cite{vygotsky1926}
\abx@aux@segm{0}{0}{vygotsky1926}
\abx@aux@fnpage{114}{107}
\abx@aux@fnpage{115}{107}
\abx@aux@cite{vygotsky1982v6}
\abx@aux@segm{0}{0}{vygotsky1982v6}
\abx@aux@cite{vygotsky1982v6}
\abx@aux@segm{0}{0}{vygotsky1982v6}
\abx@aux@cite{vygotsky1982v6}
\abx@aux@segm{0}{0}{vygotsky1982v6}
\abx@aux@cite{vygotsky1982v6}
\abx@aux@segm{0}{0}{vygotsky1982v6}
\abx@aux@cite{vygotsky1982v6}
\abx@aux@segm{0}{0}{vygotsky1982v6}
\abx@aux@fnpage{116}{108}
\newlabel{cbx@116}{{134}{108}{Art: A Social Technique For The Emotions}{chapter*.7}{}}
\abx@aux@fnpage{117}{108}
\abx@aux@fnpage{118}{108}
\abx@aux@fnpage{119}{108}
\abx@aux@fnpage{120}{108}
\abx@aux@cite{vygotsky1982v1}
\abx@aux@segm{0}{0}{vygotsky1982v1}
\@writefile{toc}{\defcounter {refsection}{0}\relax }\@writefile{toc}{\contentsline {chapter}{The Crisis In Psychology And Its Historical Meaning}{111}{chapter*.8}\protected@file@percent }
\@writefile{lof}{\defcounter {refsection}{0}\relax }\@writefile{lof}{\addvspace {10\p@ }}
\@writefile{lot}{\defcounter {refsection}{0}\relax }\@writefile{lot}{\addvspace {10\p@ }}
\newlabel{ch-crisis}{{}{111}{The Crisis In Psychology And Its Historical Meaning}{chapter*.8}{}}
\abx@aux@fnpage{121}{111}
\abx@aux@cite{vygotsky1982v1}
\abx@aux@segm{0}{0}{vygotsky1982v1}
\abx@aux@cite{vygotsky1982v1}
\abx@aux@segm{0}{0}{vygotsky1982v1}
\abx@aux@cite{vygotsky1982v1}
\abx@aux@segm{0}{0}{vygotsky1982v1}
\abx@aux@cite{vygotsky1982v1}
\abx@aux@segm{0}{0}{vygotsky1982v1}
\abx@aux@fnpage{122}{112}
\abx@aux@fnpage{123}{112}
\abx@aux@fnpage{124}{112}
\abx@aux@cite{vygotsky1982v1}
\abx@aux@segm{0}{0}{vygotsky1982v1}
\abx@aux@cite{vygotsky1982v1}
\abx@aux@segm{0}{0}{vygotsky1982v1}
\abx@aux@cite{vygotsky1982v1}
\abx@aux@segm{0}{0}{vygotsky1982v1}
\abx@aux@cite{vygotsky1982v1}
\abx@aux@segm{0}{0}{vygotsky1982v1}
\abx@aux@fnpage{125}{113}
\abx@aux@fnpage{126}{113}
\abx@aux@fnpage{127}{113}
\abx@aux@fnpage{128}{113}
\abx@aux@fnpage{129}{113}
\abx@aux@cite{vygotsky1965}
\abx@aux@segm{0}{0}{vygotsky1965}
\abx@aux@cite{vygotsky1965}
\abx@aux@segm{0}{0}{vygotsky1965}
\abx@aux@cite{vygotsky1982v1}
\abx@aux@segm{0}{0}{vygotsky1982v1}
\abx@aux@cite{vygotsky1982v1}
\abx@aux@segm{0}{0}{vygotsky1982v1}
\abx@aux@cite{vygotsky1982v1}
\abx@aux@segm{0}{0}{vygotsky1982v1}
\abx@aux@cite{vygotsky1982v1}
\abx@aux@segm{0}{0}{vygotsky1982v1}
\abx@aux@fnpage{130}{114}
\abx@aux@fnpage{131}{114}
\abx@aux@fnpage{132}{114}
\abx@aux@fnpage{133}{114}
\abx@aux@fnpage{134}{114}
\abx@aux@fnpage{135}{114}
\abx@aux@cite{vygotsky1982v1}
\abx@aux@segm{0}{0}{vygotsky1982v1}
\abx@aux@cite{vygotsky1982v1}
\abx@aux@segm{0}{0}{vygotsky1982v1}
\abx@aux@fnpage{136}{116}
\abx@aux@fnpage{137}{116}
\abx@aux@cite{vygotsky1982v1}
\abx@aux@segm{0}{0}{vygotsky1982v1}
\abx@aux@cite{vygotsky1982v1}
\abx@aux@segm{0}{0}{vygotsky1982v1}
\abx@aux@cite{binswanger1922}
\abx@aux@segm{0}{0}{binswanger1922}
\abx@aux@fnpage{138}{118}
\abx@aux@fnpage{139}{118}
\abx@aux@fnpage{140}{118}
\newlabel{cbx@140}{{160}{118}{The Crisis In Psychology And Its Historical Meaning}{chapter*.8}{}}
\abx@aux@cite{vygotsky1982v1}
\abx@aux@segm{0}{0}{vygotsky1982v1}
\abx@aux@fnpage{141}{119}
\abx@aux@cite{vygotsky1982v1}
\abx@aux@segm{0}{0}{vygotsky1982v1}
\abx@aux@cite{vygotsky1982v1}
\abx@aux@segm{0}{0}{vygotsky1982v1}
\abx@aux@cite{vygotsky1982v1}
\abx@aux@segm{0}{0}{vygotsky1982v1}
\abx@aux@fnpage{142}{121}
\abx@aux@fnpage{143}{121}
\abx@aux@fnpage{144}{122}
\abx@aux@cite{vygotsky1982v1}
\abx@aux@segm{0}{0}{vygotsky1982v1}
\abx@aux@cite{vygotsky1982v1}
\abx@aux@segm{0}{0}{vygotsky1982v1}
\abx@aux@cite{vygotsky1982v1}
\abx@aux@segm{0}{0}{vygotsky1982v1}
\abx@aux@fnpage{145}{123}
\abx@aux@fnpage{146}{123}
\abx@aux@cite{vygotsky1982v1}
\abx@aux@segm{0}{0}{vygotsky1982v1}
\abx@aux@fnpage{147}{124}
\abx@aux@fnpage{148}{124}
\abx@aux@cite{vygotsky1982v1}
\abx@aux@segm{0}{0}{vygotsky1982v1}
\abx@aux@cite{vygotsky1982v1}
\abx@aux@segm{0}{0}{vygotsky1982v1}
\abx@aux@fnpage{149}{125}
\abx@aux@cite{vygotsky1982v1}
\abx@aux@segm{0}{0}{vygotsky1982v1}
\abx@aux@cite{vygotsky1982v1}
\abx@aux@segm{0}{0}{vygotsky1982v1}
\abx@aux@cite{vygotsky1982v1}
\abx@aux@segm{0}{0}{vygotsky1982v1}
\abx@aux@cite{vygotsky1982v1}
\abx@aux@segm{0}{0}{vygotsky1982v1}
\abx@aux@fnpage{150}{126}
\abx@aux@fnpage{151}{126}
\abx@aux@fnpage{152}{126}
\abx@aux@fnpage{153}{126}
\abx@aux@cite{vygotsky1982v1}
\abx@aux@segm{0}{0}{vygotsky1982v1}
\abx@aux@cite{vygotsky1982v1}
\abx@aux@segm{0}{0}{vygotsky1982v1}
\abx@aux@cite{vygotsky1982v1}
\abx@aux@segm{0}{0}{vygotsky1982v1}
\abx@aux@fnpage{154}{127}
\abx@aux@fnpage{155}{127}
\abx@aux@fnpage{156}{127}
\abx@aux@fnpage{157}{127}
\abx@aux@cite{vygotsky1982v1}
\abx@aux@segm{0}{0}{vygotsky1982v1}
\abx@aux@cite{vygotsky1982v1}
\abx@aux@segm{0}{0}{vygotsky1982v1}
\abx@aux@fnpage{158}{128}
\abx@aux@fnpage{159}{128}
\abx@aux@cite{vygotsky1982v1}
\abx@aux@segm{0}{0}{vygotsky1982v1}
\abx@aux@cite{vygotsky1982v1}
\abx@aux@segm{0}{0}{vygotsky1982v1}
\abx@aux@fnpage{160}{129}
\abx@aux@fnpage{161}{129}
\abx@aux@cite{vygotsky1982v1}
\abx@aux@segm{0}{0}{vygotsky1982v1}
\abx@aux@cite{vygotsky1982v1}
\abx@aux@segm{0}{0}{vygotsky1982v1}
\@writefile{toc}{\defcounter {refsection}{0}\relax }\@writefile{toc}{\contentsline {chapter}{In Search Of Traps For The Psyche}{133}{chapter*.9}\protected@file@percent }
\@writefile{lof}{\defcounter {refsection}{0}\relax }\@writefile{lof}{\addvspace {10\p@ }}
\@writefile{lot}{\defcounter {refsection}{0}\relax }\@writefile{lot}{\addvspace {10\p@ }}
\newlabel{ch-traps}{{}{133}{In Search Of Traps For The Psyche}{chapter*.9}{}}
\abx@aux@fnpage{162}{133}
\abx@aux@fnpage{163}{133}
\abx@aux@cite{vygotsky1982v1}
\abx@aux@segm{0}{0}{vygotsky1982v1}
\abx@aux@cite{vygotsky1982v1}
\abx@aux@segm{0}{0}{vygotsky1982v1}
\abx@aux@fnpage{164}{134}
\abx@aux@fnpage{165}{134}
\abx@aux@cite{vygotsky1982v1}
\abx@aux@segm{0}{0}{vygotsky1982v1}
\abx@aux@cite{vygotsky1982v1}
\abx@aux@segm{0}{0}{vygotsky1982v1}
\abx@aux@fnpage{166}{137}
\abx@aux@fnpage{167}{137}
\abx@aux@cite{leontyev1982}
\abx@aux@segm{0}{0}{leontyev1982}
\abx@aux@cite{vygotsky1982v1}
\abx@aux@segm{0}{0}{vygotsky1982v1}
\abx@aux@fnpage{168}{138}
\newlabel{cbx@168}{{189}{138}{In Search Of Traps For The Psyche}{Item.9}{}}
\abx@aux@fnpage{169}{138}
\abx@aux@cite{vygotsky1926}
\abx@aux@segm{0}{0}{vygotsky1926}
\abx@aux@fnpage{170}{139}
\abx@aux@cite{vygotsky1928a}
\abx@aux@segm{0}{0}{vygotsky1928a}
\abx@aux@cite{vygotsky1928b}
\abx@aux@segm{0}{0}{vygotsky1928b}
\abx@aux@cite{vygotsky1928b}
\abx@aux@segm{0}{0}{vygotsky1928b}
\@writefile{toc}{\defcounter {refsection}{0}\relax }\@writefile{toc}{\contentsline {chapter}{Psychology In Terms Of Drama}{141}{chapter*.10}\protected@file@percent }
\@writefile{lof}{\defcounter {refsection}{0}\relax }\@writefile{lof}{\addvspace {10\p@ }}
\@writefile{lot}{\defcounter {refsection}{0}\relax }\@writefile{lot}{\addvspace {10\p@ }}
\newlabel{ch-drama}{{}{141}{Psychology In Terms Of Drama}{chapter*.10}{}}
\abx@aux@fnpage{171}{141}
\abx@aux@fnpage{172}{141}
\newlabel{cbx@172}{{194}{141}{Psychology In Terms Of Drama}{chapter*.10}{}}
\abx@aux@fnpage{173}{141}
\abx@aux@cite{vygotsky1982v1}
\abx@aux@segm{0}{0}{vygotsky1982v1}
\abx@aux@fnpage{174}{143}
\abx@aux@cite{vygotsky1986}
\abx@aux@segm{0}{0}{vygotsky1986}
\abx@aux@cite{vygotsky1986}
\abx@aux@segm{0}{0}{vygotsky1986}
\abx@aux@cite{vygotsky1986}
\abx@aux@segm{0}{0}{vygotsky1986}
\abx@aux@cite{marx1984}
\abx@aux@segm{0}{0}{marx1984}
\abx@aux@cite{vygotsky1986}
\abx@aux@segm{0}{0}{vygotsky1986}
\abx@aux@fnpage{175}{144}
\newlabel{cbx@175}{{197}{144}{Psychology In Terms Of Drama}{chapter*.10}{}}
\abx@aux@fnpage{176}{144}
\abx@aux@fnpage{177}{144}
\abx@aux@fnpage{178}{144}
\newlabel{cbx@178}{{200}{144}{Psychology In Terms Of Drama}{chapter*.10}{}}
\abx@aux@fnpage{179}{144}
\abx@aux@cite{vygotsky1986}
\abx@aux@segm{0}{0}{vygotsky1986}
\abx@aux@cite{vygotsky1986}
\abx@aux@segm{0}{0}{vygotsky1986}
\abx@aux@fnpage{180}{145}
\abx@aux@cite{vygotsky1986}
\abx@aux@segm{0}{0}{vygotsky1986}
\abx@aux@cite{vygotsky1986}
\abx@aux@segm{0}{0}{vygotsky1986}
\abx@aux@fnpage{181}{146}
\abx@aux@fnpage{182}{146}
\abx@aux@fnpage{183}{146}
\abx@aux@cite{vygotsky1986}
\abx@aux@segm{0}{0}{vygotsky1986}
\abx@aux@fnpage{184}{147}
\abx@aux@cite{vygotsky1986}
\abx@aux@segm{0}{0}{vygotsky1986}
\abx@aux@fnpage{185}{148}
\abx@aux@cite{vygotsky1986}
\abx@aux@segm{0}{0}{vygotsky1986}
\abx@aux@cite{vygotsky1986}
\abx@aux@segm{0}{0}{vygotsky1986}
\abx@aux@fnpage{186}{149}
\abx@aux@fnpage{187}{149}
\abx@aux@cite{vygotsky1986}
\abx@aux@segm{0}{0}{vygotsky1986}
\abx@aux@cite{vygotsky1986}
\abx@aux@segm{0}{0}{vygotsky1986}
\abx@aux@cite{vygotsky1986}
\abx@aux@segm{0}{0}{vygotsky1986}
\abx@aux@cite{vygotsky1986}
\abx@aux@segm{0}{0}{vygotsky1986}
\abx@aux@cite{vygotsky1986}
\abx@aux@segm{0}{0}{vygotsky1986}
\abx@aux@fnpage{188}{152}
\abx@aux@fnpage{189}{152}
\abx@aux@fnpage{190}{152}
\abx@aux@cite{vygotsky1986}
\abx@aux@segm{0}{0}{vygotsky1986}
\abx@aux@fnpage{191}{153}
\abx@aux@fnpage{192}{153}
\abx@aux@fnpage{193}{153}
\@writefile{toc}{\defcounter {refsection}{0}\relax }\@writefile{toc}{\contentsline {chapter}{The Discovery Of The Mechanism Of The Higher Forms Of Behaviour}{155}{chapter*.11}\protected@file@percent }
\@writefile{lof}{\defcounter {refsection}{0}\relax }\@writefile{lof}{\addvspace {10\p@ }}
\@writefile{lot}{\defcounter {refsection}{0}\relax }\@writefile{lot}{\addvspace {10\p@ }}
\newlabel{ch-higher}{{}{155}{The Discovery Of The Mechanism Of The Higher Forms Of Behaviour}{chapter*.11}{}}
\abx@aux@cite{vygotsky1982v3}
\abx@aux@segm{0}{0}{vygotsky1982v3}
\abx@aux@fnpage{194}{161}
\newlabel{cbx@194}{{217}{161}{The Discovery Of The Mechanism Of The Higher Forms Of Behaviour}{chapter*.11}{}}
\abx@aux@cite{pavlov1951v4}
\abx@aux@segm{0}{0}{pavlov1951v4}
\abx@aux@cite{vygotsky1982v1}
\abx@aux@segm{0}{0}{vygotsky1982v1}
\abx@aux@cite{vygotsky1982v3}
\abx@aux@segm{0}{0}{vygotsky1982v3}
\abx@aux@fnpage{195}{166}
\newlabel{cbx@195}{{218}{166}{The Discovery Of The Mechanism Of The Higher Forms Of Behaviour}{chapter*.11}{}}
\abx@aux@fnpage{196}{166}
\abx@aux@fnpage{197}{167}
\abx@aux@cite{vygotsky1982v3}
\abx@aux@segm{0}{0}{vygotsky1982v3}
\abx@aux@fnpage{198}{168}
\@writefile{toc}{\defcounter {refsection}{0}\relax }\@writefile{toc}{\contentsline {chapter}{The Path To Concept}{171}{chapter*.12}\protected@file@percent }
\@writefile{lof}{\defcounter {refsection}{0}\relax }\@writefile{lof}{\addvspace {10\p@ }}
\@writefile{lot}{\defcounter {refsection}{0}\relax }\@writefile{lot}{\addvspace {10\p@ }}
\newlabel{ch-concept}{{}{171}{The Path To Concept}{chapter*.12}{}}
\abx@aux@cite{vygotsky1982v2}
\abx@aux@segm{0}{0}{vygotsky1982v2}
\abx@aux@cite{vygotsky1982v2}
\abx@aux@segm{0}{0}{vygotsky1982v2}
\abx@aux@fnpage{199}{173}
\newlabel{cbx@199}{{222}{173}{The Path To Concept}{chapter*.12}{}}
\abx@aux@fnpage{200}{173}
\abx@aux@cite{vygotsky1982v2}
\abx@aux@segm{0}{0}{vygotsky1982v2}
\abx@aux@cite{vygotsky1982v2}
\abx@aux@segm{0}{0}{vygotsky1982v2}
\abx@aux@fnpage{201}{177}
\abx@aux@fnpage{202}{177}
\abx@aux@cite{vygotsky1982v2}
\abx@aux@segm{0}{0}{vygotsky1982v2}
\abx@aux@fnpage{203}{180}
\abx@aux@cite{bruner1984}
\abx@aux@segm{0}{0}{bruner1984}
\abx@aux@fnpage{204}{183}
\newlabel{cbx@204}{{227}{183}{The Path To Concept}{chapter*.12}{}}
\abx@aux@cite{bruner1984}
\abx@aux@segm{0}{0}{bruner1984}
\abx@aux@fnpage{205}{185}
\@writefile{toc}{\defcounter {refsection}{0}\relax }\@writefile{toc}{\contentsline {chapter}{The Fate Of The Word In The Life Of Individual Thought}{187}{chapter*.13}\protected@file@percent }
\@writefile{lof}{\defcounter {refsection}{0}\relax }\@writefile{lof}{\addvspace {10\p@ }}
\@writefile{lot}{\defcounter {refsection}{0}\relax }\@writefile{lot}{\addvspace {10\p@ }}
\newlabel{ch-indiv}{{}{187}{The Fate Of The Word In The Life Of Individual Thought}{chapter*.13}{}}
\abx@aux@cite{vygotsky1982v2}
\abx@aux@segm{0}{0}{vygotsky1982v2}
\abx@aux@cite{vygotsky1982v2}
\abx@aux@segm{0}{0}{vygotsky1982v2}
\abx@aux@fnpage{206}{189}
\abx@aux@fnpage{207}{189}
\abx@aux@cite{vygotsky1982v2}
\abx@aux@segm{0}{0}{vygotsky1982v2}
\abx@aux@cite{vygotsky1982v2}
\abx@aux@segm{0}{0}{vygotsky1982v2}
\abx@aux@fnpage{208}{190}
\abx@aux@fnpage{209}{190}
\abx@aux@cite{vygotsky1982v2}
\abx@aux@segm{0}{0}{vygotsky1982v2}
\abx@aux@fnpage{210}{193}
\abx@aux@cite{vygotsky1982v2}
\abx@aux@segm{0}{0}{vygotsky1982v2}
\abx@aux@cite{vygotsky1982v2}
\abx@aux@segm{0}{0}{vygotsky1982v2}
\abx@aux@cite{vygotsky1982v2}
\abx@aux@segm{0}{0}{vygotsky1982v2}
\abx@aux@fnpage{211}{196}
\abx@aux@fnpage{212}{196}
\abx@aux@fnpage{213}{196}
\@writefile{toc}{\defcounter {refsection}{0}\relax }\@writefile{toc}{\contentsline {chapter}{Integral Schema Of The Structure Of Consciousness}{199}{chapter*.14}\protected@file@percent }
\@writefile{lof}{\defcounter {refsection}{0}\relax }\@writefile{lof}{\addvspace {10\p@ }}
\@writefile{lot}{\defcounter {refsection}{0}\relax }\@writefile{lot}{\addvspace {10\p@ }}
\newlabel{ch-integral}{{}{199}{Integral Schema Of The Structure Of Consciousness}{chapter*.14}{}}
\abx@aux@cite{james1962}
\abx@aux@segm{0}{0}{james1962}
\abx@aux@cite{vygotsky1982v6}
\abx@aux@segm{0}{0}{vygotsky1982v6}
\abx@aux@fnpage{214}{202}
\newlabel{cbx@214}{{237}{202}{Integral Schema Of The Structure Of Consciousness}{chapter*.14}{}}
\abx@aux@fnpage{215}{202}
\abx@aux@cite{plato1955}
\abx@aux@segm{0}{0}{plato1955}
\abx@aux@cite{plato1955}
\abx@aux@segm{0}{0}{plato1955}
\abx@aux@cite{plato1955}
\abx@aux@segm{0}{0}{plato1955}
\abx@aux@cite{vygotsky1982v6}
\abx@aux@segm{0}{0}{vygotsky1982v6}
\abx@aux@fnpage{216}{203}
\newlabel{cbx@216}{{239}{203}{Integral Schema Of The Structure Of Consciousness}{chapter*.14}{}}
\abx@aux@fnpage{217}{203}
\abx@aux@fnpage{218}{203}
\abx@aux@cite{vygotsky1982v6}
\abx@aux@segm{0}{0}{vygotsky1982v6}
\abx@aux@cite{vygotsky1982v6}
\abx@aux@segm{0}{0}{vygotsky1982v6}
\abx@aux@fnpage{219}{204}
\abx@aux@fnpage{220}{204}
\abx@aux@cite{vygotsky1982v6}
\abx@aux@segm{0}{0}{vygotsky1982v6}
\abx@aux@fnpage{221}{205}
\abx@aux@fnpage{222}{205}
\abx@aux@cite{vygotsky1982v6}
\abx@aux@segm{0}{0}{vygotsky1982v6}
\abx@aux@cite{vygotsky1982v6}
\abx@aux@segm{0}{0}{vygotsky1982v6}
\abx@aux@fnpage{223}{206}
\abx@aux@fnpage{224}{206}
\abx@aux@cite{vygotsky1982v2}
\abx@aux@segm{0}{0}{vygotsky1982v2}
\abx@aux@fnpage{225}{207}
\abx@aux@cite{vygotsky1982v2}
\abx@aux@segm{0}{0}{vygotsky1982v2}
\abx@aux@cite{vygotsky1982v2}
\abx@aux@segm{0}{0}{vygotsky1982v2}
\abx@aux@fnpage{226}{208}
\abx@aux@fnpage{227}{208}
\abx@aux@page{228}{211}
\abx@aux@page{229}{211}
\abx@aux@page{230}{211}
\abx@aux@page{231}{211}
\abx@aux@page{232}{211}
\abx@aux@page{233}{211}
\abx@aux@page{234}{211}
\abx@aux@page{235}{211}
\abx@aux@page{236}{211}
\abx@aux@page{237}{211}
\abx@aux@page{238}{211}
\abx@aux@page{239}{212}
\abx@aux@page{240}{212}
\abx@aux@page{241}{212}
\abx@aux@page{242}{212}
\abx@aux@page{243}{212}
\abx@aux@page{244}{212}
\abx@aux@page{245}{212}
\abx@aux@page{246}{212}
\abx@aux@page{247}{212}
\abx@aux@page{248}{212}
\abx@aux@page{249}{212}
\abx@aux@page{250}{212}
\abx@aux@page{251}{212}
\abx@aux@page{252}{212}
\abx@aux@page{253}{213}
\abx@aux@page{254}{213}
\abx@aux@page{255}{213}
\abx@aux@page{256}{213}
\abx@aux@page{257}{213}
\abx@aux@read@bbl@mdfivesum{530508597BB5863A19B3052407130230}
\abx@aux@refcontextdefaultsdone
\abx@aux@defaultrefcontext{0}{binswanger1922}{cms/global//global/global}
\abx@aux@defaultrefcontext{0}{bruner1984}{cms/global//global/global}
\abx@aux@defaultrefcontext{0}{efros1922}{cms/global//global/global}
\abx@aux@defaultrefcontext{0}{ehrenburg1966}{cms/global//global/global}
\abx@aux@defaultrefcontext{0}{james1962}{cms/global//global/global}
\abx@aux@defaultrefcontext{0}{leontyev1982}{cms/global//global/global}
\abx@aux@defaultrefcontext{0}{defect1984}{cms/global//global/global}
\abx@aux@defaultrefcontext{0}{luria1982}{cms/global//global/global}
\abx@aux@defaultrefcontext{0}{marx1984}{cms/global//global/global}
\abx@aux@defaultrefcontext{0}{pavlov1951v1}{cms/global//global/global}
\abx@aux@defaultrefcontext{0}{pavlov1951v3b1}{cms/global//global/global}
\abx@aux@defaultrefcontext{0}{pavlov1951v3b2}{cms/global//global/global}
\abx@aux@defaultrefcontext{0}{pavlov1951v4}{cms/global//global/global}
\abx@aux@defaultrefcontext{0}{plato1955}{cms/global//global/global}
\abx@aux@defaultrefcontext{0}{plekhanov1922}{cms/global//global/global}
\abx@aux@defaultrefcontext{0}{shake1965}{cms/global//global/global}
\abx@aux@defaultrefcontext{0}{spinoza1925}{cms/global//global/global}
\abx@aux@defaultrefcontext{0}{tolstoy1950}{cms/global//global/global}
\abx@aux@defaultrefcontext{0}{toulmin1978}{cms/global//global/global}
\abx@aux@defaultrefcontext{0}{voprosy1924}{cms/global//global/global}
\abx@aux@defaultrefcontext{0}{vygotsky1986}{cms/global//global/global}
\abx@aux@defaultrefcontext{0}{vygotsky1928a}{cms/global//global/global}
\abx@aux@defaultrefcontext{0}{vygotsky1926}{cms/global//global/global}
\abx@aux@defaultrefcontext{0}{vygotsky1928b}{cms/global//global/global}
\abx@aux@defaultrefcontext{0}{vygotsky1965}{cms/global//global/global}
\abx@aux@defaultrefcontext{0}{vygotsky1982v1}{cms/global//global/global}
\abx@aux@defaultrefcontext{0}{vygotsky1982v2}{cms/global//global/global}
\abx@aux@defaultrefcontext{0}{vygotsky1982v3}{cms/global//global/global}
\abx@aux@defaultrefcontext{0}{vygotsky1982v5}{cms/global//global/global}
\abx@aux@defaultrefcontext{0}{vygotsky1982v6}{cms/global//global/global}
\ttl@finishall
\gdef \@abspage@last{215}
