\boolfalse {citerequest}\boolfalse {citetracker}\boolfalse {pagetracker}\boolfalse {backtracker}\relax 
\defcounter {refsection}{0}\relax 
\contentsline {chapter}{Introduction}{7}{chapter*.1}%
\defcounter {refsection}{0}\relax 
\contentsline {chapter}{Family and School}{25}{chapter*.2}%
\defcounter {refsection}{0}\relax 
\contentsline {chapter}{University Years. The Riddle of Hamlet}{29}{chapter*.3}%
\defcounter {refsection}{0}\relax 
\contentsline {chapter}{Teacher in Gomel}{41}{chapter*.4}%
\defcounter {refsection}{0}\relax 
\contentsline {chapter}{From Reflexology To Psychology}{49}{chapter*.5}%
\defcounter {refsection}{0}\relax 
\contentsline {chapter}{The Abnormal Child In The World Of Culture}{67}{chapter*.6}%
\defcounter {refsection}{0}\relax 
\contentsline {chapter}{Art: A Social Technique For The Emotions}{91}{chapter*.7}%
\defcounter {refsection}{0}\relax 
\contentsline {chapter}{The Crisis In Psychology And Its Historical Meaning}{111}{chapter*.8}%
\defcounter {refsection}{0}\relax 
\contentsline {chapter}{In Search Of Traps For The Psyche}{133}{chapter*.9}%
\defcounter {refsection}{0}\relax 
\contentsline {chapter}{Psychology In Terms Of Drama}{141}{chapter*.10}%
\defcounter {refsection}{0}\relax 
\contentsline {chapter}{The Discovery Of The Mechanism Of The Higher Forms Of Behaviour}{155}{chapter*.11}%
\defcounter {refsection}{0}\relax 
\contentsline {chapter}{The Path To Concept}{171}{chapter*.12}%
\defcounter {refsection}{0}\relax 
\contentsline {chapter}{The Fate Of The Word In The Life Of Individual Thought}{187}{chapter*.13}%
\defcounter {refsection}{0}\relax 
\contentsline {chapter}{Integral Schema Of The Structure Of Consciousness}{199}{chapter*.14}%
\contentsfinish 
